{
	"dbURL":"mongodb://chatcatuser:a732hz@ds035702.mongolab.com:35702/chatcat",
	"sessionSecret":"JLKDSA:DSJAKDLASJndmsajhdads3783h42n",
	"fb": {
		"appID": "430152133822261",
		"appSecret":"530a7eee63394bc64309d1765c0d6b36",
		"callbackUrl": "http://52.28.156.58/chatcatauth/facebook/callback"
	},
	"host":"http://52.28.156.58:8080/chatcat"
}
